{
    "total": 50,
    "per_page": 15,
    "current_page": 1,
    "last_page": 4,
    "next_page_url": "...",
    "prev_page_url": "...",
    "from": 1,
    "to": 15,
    "data": [
      {
        "id plate": 1,
        "owner": "xxxxxxxxx",
        "pilot": "xxxxxxx",
        "country": "xxx@xxx.xxx",
        "state": "xxxx-xx-xx",
        "last flight": "X"
      },

      {
        "id plate": 2,
        "owner": "xxxxxxxxx",
        "pilot": "xxxxxxx",
        "country": "xxx@xxx.xxx",
        "state": "xxxx-xx-xx",
        "last flight": "X"
      }
    ]
  }
  